avatar-gaming-disorder-machine-learning
…
Predict LM results on the testing data. Tuning is not required.

echo=FALSE
error=FALSE
warning=FALSE
set.seed(123)
options(scipen = 999, digits=3, max.print=999999, show.signif.stars=TRUE)
results_LM <-  test_data_GD_b%>% 
  bind_cols( lm_fit%>% 
    # Predict GDTotal
    predict(new_data = test_data_GD_b) %>% 
      rename(predictions = .pred))
results_LM

# A tibble: 135 x 6
   IDTotal IMTotal COMPTotal PETotal GDTTotal predictions
     <dbl>   <dbl>     <dbl>   <dbl>    <dbl>       <dbl>
 1  0.478    2.27     0.0796 -0.191        13       10.9 
 2  1.24    -0.540    0.403  -0.0132        6        6.86
 3 -0.0931  -1.01    -0.244  -0.901         4        6.70
 4 -0.855   -0.306   -1.86   -0.901         7        7.74
 5  0.859    0.631    0.0796  1.23          4        8.53
 6  1.05     0.865    0.727   1.76          8        8.84
 7 -1.43    -1.71    -1.22   -0.901         4        6.18
 8  0.859    0.631    0.0796  2.30          6        8.53
 9 -0.0931  -1.71    -1.86   -0.546         4        5.57
10  0.669   -0.306   -0.892  -0.901         6        7.25
# ... with 125 more rows
…
Evaluate the LASSO model

echo=FALSE
error=FALSE
warning=FALSE
set.seed(123)
options(scipen = 999, digits=3, max.print=999999, show.signif.stars=TRUE)
results_LASSO <-  test_data_GD_b%>% 
  bind_cols( Lasso_fit%>% 
    # Predict GDTotal
    predict(new_data = test_data_GD_b) %>% 
      rename(predictions = .pred))
results_LASSO

# A tibble: 135 x 6
   IDTotal IMTotal COMPTotal PETotal GDTTotal predictions
     <dbl>   <dbl>     <dbl>   <dbl>    <dbl>       <dbl>
 1  0.478    2.27     0.0796 -0.191        13        8.52
 2  1.24    -0.540    0.403  -0.0132        6        7.91
 3 -0.0931  -1.01    -0.244  -0.901         4        7.81
 4 -0.855   -0.306   -1.86   -0.901         7        7.96
 5  0.859    0.631    0.0796  1.23          4        8.16
 6  1.05     0.865    0.727   1.76          8        8.21
 7 -1.43    -1.71    -1.22   -0.901         4        7.66
 8  0.859    0.631    0.0796  2.30          6        8.16
 9 -0.0931  -1.71    -1.86   -0.546         4        7.66
10  0.669   -0.306   -0.892  -0.901         6        7.96
# ... with 125 more rows
…
